game.swf Movie Report
----------------------

Frame #    Frame Bytes    Total Bytes    Scene
-------    -----------    -----------    ----------------
      1          30843          30843    Scene 1 (AS 2.0 Classes Export Frame)
      2              1          30844    
      3              1          30845    
      4              1          30846    
      5              1          30847    
      6              1          30848    
      7              1          30849    
      8              1          30850    
      9              1          30851    
     10              1          30852    
     11         172481         203333    
     12              1         203334    
     13         673705         877039    
     14             86         877125    
     15              1         877126    
     16              1         877127    
     17              1         877128    
     18              1         877129    
     19              1         877130    
     20            577         877707    
     21          87671         965378    
     22          23874         989252    
     23             10         989262    

Scene                        Shape Bytes    Text Bytes    ActionScript Bytes
-------------------------    -----------    ----------    ------------------
Scene 1                             2161           469                 37427

Symbol                       Shape Bytes    Text Bytes    ActionScript Bytes
-------------------------    -----------    ----------    ------------------
pauseScreenIconMc                    137             0                     0
locker                                 0             0                  1047
score bg                             154             0                     0
poster                                 0             0                     0
bgTiles                                0             0                     0
tglBgLoop                              0             0                     0
bar_mask                              33             0                     0
worm_tongue                            0             0                     2
gun_hitarea                           62             0                     0
power_mc                               0            65                     0
rollover                              34             0                     0
black_mc                              35             0                     0
create                                 0             0                     0
play_btn                              48           140                     0
scores_week                            0          5622                     0
hiscore                              198           311                   959
fps                                    0            36                   557
sonar_mc                               0             0                     3
glow                                   0             0                     3
shadow_mc                             80             0                     0
tween                                  0             0                     0
go                                     0             0                     0
get                                    0             0                     0
info                                   0           116                   346
game graphics                          0           571                   511
logo_graphic                           0             0                     0
menu                                   0             0                     0
MAIN_MENU                              0             0                     0
bird_hit                             290             0                     3
ship                                   0             0                     3
boost                                  0             0                     0
hand                                   0             0                     0
movie_mc                               0             0                     1
badrocket_clip                         0             0                     0
badrocket                              0             0                     0
beam_mc                             6109             0                     0
targ                                   0             0                     0
boss                                   0             0                     6
explosion                              0             0                     1
mega                                   0             0                     1
rocket                                 0             0                     0
spider_drop                            0             0                     2
worm                                   0             0                     2
pickup_mc                              0           139                     8
mute_btn                               0             0                     0
mute_clip                              0             0                     0
antiVirus1                             0             0                     0
antiVirus2                             0             0                     0
antiVirus3                             0             0                     0
orb                                    0             0                     0
megabiteFire                           0             0                     0
flame                                  0             0                     0
megabiteMouth                          0             0                     0
rocket                                 0             0                     0
dragonFlyMc                            0             0                     0
laser                                  0             0                     0
hunter                                 0             0                     0
Tween 2 copy                           0             0                     0
pink                                   0             0                     0
mainflameImg                           0             0                     0
smallFlameImg                          0             0                     0
fireBulletMc                           0             0                     0
Tween 2                                0             0                     0
beastieBullet                          0             0                     0
slow_bullet                            0             0                     0
beam                                   0             0                     0
electricOuterMc                        0             0                     0
zigzag                                 0             0                     0
zigzagMc                               0             0                     0
zigzag1                                0             0                     0
zigzag1Mc                              0             0                     0
beamGunMc                             60             0                    69
DragonFlytailEnd                       0             0                     0
DragonFlytailPart                      0             0                     0
dragonflyTailMc                        0             0                     0
dragonFlyTailUpdownMc                  0             0                     0
dragonFlyWing2                         0             0                     0
dragonFlyWing1                         0             0                     0
dragonflyWings1Mc                      0             0                     0
dragonFlyBody                          0             0                     0
dragonflyBodyMc                        0             0                     0
dragonFlyHead                          0             0                     0
DraginFlyHeadMc                        0             0                     0
dragonFlyMc                            0             0                     0
spiderLeg4                             0             0                     0
spiderLeg4-1                           0             0                     0
spiderLeg3                             0             0                     0
spiderLeg3-1                           0             0                     0
spiderLeg2                             0             0                     0
spiderLeg2-1                           0             0                     0
spiderLeg1                             0             0                     0
spiderLeg1-1                           0             0                     0
legsRightMc                            0             0                     0
legsRightMc1                           0             0                     0
spiderBody                             0             0                     0
spiderBodyMc                           0             0                     0
spiderHead                             0             0                     0
spiderEyes                             0             0                     0
spiderBlink                            0             0                     0
spiderHeadMc                           0             0                     0
SpiderheadWobbleMc                     0             0                     0
spiderMc                               0             0                     0
legsRightAttackMc                      0             0                     0
spiderBodyAttackMc                     0             0                     0
SpiderheadAttackMc                     0             0                     0
spiderAttachMc                         0             0                     2
1UP                                    0             0                     0
hooverGlow1                            0             0                     0
hooverGlow3                            0             0                     0
hooverGlow2                            0             0                     0
outerGlowMc                            0             0                     0
sideOuterGlow1                         0             0                     0
sideOuterGlow2                         0             0                     0
sideOuterGlow3                         0             0                     0
outerGlowSideMc                        0             0                     0
sonarLine                             49             0                     0
sonarMov                             164             0                     0
sonarMovSide                         167             0                     0
miniBadSmallFlame                      0             0                     0
miniBadSmallFlameMc                    0             0                     0
miniBadyMc                             0             0                     0
bar1                                 190             0                     0
anim                                  81             0                     7
progressbar                          102             0                     0
Symbol 119                             0             0                     0
loading_mc                           101            60                   527
click                                  0            67                     0
login_mc                             207             0                    41
getReadyMc                           880             0                     0
gameOverTitleMc                     1004             0                     0
monitor                                0             0                     0
powerbtnOff                            0             0                     0
powerBtnOn                             0             0                     0
btn                                    0             0                     0
powerBtnMc                             0             0                     2
soundBtnMc                             0             0                   140
PauseBtnMc                             0             0                   185
protokid                               0             0                     0
protoKidLarge                          0             0                     0
flame                                  0             0                     0
monitorSlotGlowMc                      0             0                     0
monitorSlotGlowMainMc                  0             0                     0
monitorsideSlotGlowMc                  0             0                     0
monitorSideSlotGlowMainMc              0             0                     0
topGreenslitGlowMc                     0             0                     0
topGreenSlotGlowMc                     0             0                     0
greenSlotsMc                           0             0                     0
monitorSlotGlow                        0             0                     0
monitorSlotColourMc                    0             0                     0
greenslotGlow                          0             0                     0
screenLineMc1                          0             0                     0
monitorScreenGlowMc                    0             0                     0
monitorGlowCOloursMc                   0             0                     0
blackStrip                             0             0                     0
blackStripMc                           0             0                     0
blackOutMc                             0             0                   168
writer_01                              0            54                   296
writer_02                              0            54                   293
writer_03                              0            54                   299
writer_04                              0            54                   297
writer_05                              0            54                   307
writer_06                              0            53                   276
writer_07                              0            54                   289
321CountdownMc                         0            78                   190
curorAni                               0             0                    12
writingMovie                           0             0                    65
finalExplodeImg                        0             0                     0
blueExplodeMc                          0             0                    36
protoMailImg                           0             0                     0
rolloverHighlight1                    68             0                     0
highlightMc copy                       0             0                     0
cancelIcon                             0             0                     0
sendBtn                                0            78                     0
cancelBtn                             31            78                     0
mailSentImg                            0             0                     0
protoMailMc                          144           182                   425
sendFriendBtn                          0           100                     0
Symbol 2                               0             0                     0
redExplodeSmlMc                        0             0                    36
virusInnerCircle                     263             0                     0
virusOuterRim2                         0             0                     0
bulletImg                              0             0                     0
VirusBulletMc                          0             0                     0
virusOuterRim2MaskedMc                 0             0                     0
virusOuterRim2Mc                       0             0                     0
virusOuterRim2McRight                  0             0                     0
spinningMask1Mc                        0             0                     0
spinningMask1McRight                   0             0                     0
virusOuterRim3                         0             0                     0
virusOuterRim3MaskedMc                 0             0                     0
virusOuterRim3Mc                       0             0                     0
virusOuterRim3McRight                  0             0                     0
virusOuterRim1                         0             0                     0
virusOuterRim1MaskedMc                 0             0                     0
virusOuterRim1Mc                       0             0                     0
virusOuterRim1McRight                  0             0                     0
virusBlob2                             0             0                     0
virusBloc2Mc                           0             0                     0
virusBlob2RotateMc                     0             0                     0
virusBlob2RotateRightMc                0             0                     0
virusBlob1                             0             0                     0
virusBloc1Mc                           0             0                     0
virusBlob1RotateMc                     0             0                     0
virusBlob1RotateRightMc                0             0                     0
virusOuterRing                         0             0                     0
mainRimMc                              0             0                     0
mainRimMcRight                         0             0                     0
spiral1                                0             0                     0
spiralImg                              0             0                     0
spiralMc                               0             0                     0
virusEye                               0             0                     0
eyesMc                                 0             0                     0
VirusBossMc                            0             0                     2
megaBiteLrgIcon                        0             0                     8
magnatronLrgIcon                       0             0                     0
charge1                                0             0                     0
charge2                                0             0                     0
charge3                                0             0                     0
gunTipMc                               0             0                     0
gunOutline                             0             0                     0
virushealthbar backPanelImg            0             0                     0
healthBarsImg                          0             0                     0
virusHealthBar                         0             0                     0
playmoreTitleImg                       0             0                     0
protokid.comMasked                     0             0                     0
playMoreTxtGold                        0             0                     0
playmoreBtn                            0             0                     0
playmoreGamesMc                        0             0                     0
login_shadow                           0             0                     0
login_panel_gfx1                       0             0                     0
login_b1                               0             0                     0
professor                              0             0                     0
professor_text2                        0             0                     0
professor_text                         0             0                     0
dummie_but2                            0             0                     0
dummie_but1                            0             0                     0
d                                      0             0                     0
professor_animation                    0             0                     0
login_enterB                           0             0                     0
login_guestB                           0             0                     0
loginPannel_mc                         0             0                     0
hScore_numbers copy 2                  0          3078                     1
rainbow                              107             0                     0
hi_frame                             477             0                     0
highscore_mc                           0             0                   364
p1top                                  0             0                     0
p1side                                 0             0                     0
bullet                                 0             0                     0
fire                                  31             0                     1
p1side1                                0             0                     0
mouse                                  0             0                     0
fire1                                  0             0                     0
mouse 1                                0             0                     0
player1                                0             0                     0
musicFile                              0             0                     0
player1_2                              0             0                     0
inst_frame                           568             0                     0
nextBtn                                0             0                     0
instructions_mc                        0             0                    42
link                                  33             0                     0
BASElogo                             240             0                     0
redline                               50             0                     0
bluelineWarp                           0             0                     0
redlineWarp                            0             0                     0
newlines                               0             0                     0


Tweened Shapes: 1593 bytes

Font Name                 Bytes        Characters    
----------------------    ---------    --------------
_sans Bold                     4656    
Times New Roman CE Bold          36    
04b_03  16 pts                  834    .0123456789
04b_03                         6744     !"#$%&'()*+,-./0123456789:;<=>?@ABCDEFGHIJKLMNOPQRSTUVWXYZ[\]^_`abcdefghijklmnopqrstuvwxyz{|}~ˆ˜–—‘’‚“”„†‡•…‰‹›€™
FFF Galaxy Bold                2458     %.0123456789ABCDEFGHIJKLMNOPQRSTUVWXYZ

ActionScript Bytes    Location
------------------    --------
              1198    Scene 1:AS:1
              1590    Scene 1:AS SOUND:1
                61    Scene 1:actions:1
               519    loading_mc:Layer 2:1
                 1    anim:Layer 4:2
                 5    anim:Layer 4:8
                 1    anim:Layer 4:9
                 8    loading_mc:Layer 4:1:progressbar(progressbar)
              1047    locker:Layer 1:1
                36    Scene 1:link:1:No instance name assigned(link)
                39    Scene 1:AS:11
                 0    login_mc:STOP:1
                 0    login_mc:URL GAME ID SCORE:1
                 0    login_mc:AS:1
                 0    login_mc:STOP:11
                 0    login_mc:AS CLICK:21
               364    highscore_mc:Layer 2:1
                 1    hScore_numbers copy 2:Layer 2:1
                 1    login_mc:STOP:24
                 5    login_mc:Layer 15:24:No instance name assigned(nextBtn)
                 1    instructions_mc:anim:1
                 1    fire:Layer 2:10
                 8    instructions_mc:btn:1:No instance name assigned(nextBtn)
                 1    instructions_mc:anim:2
                32    instructions_mc:btn:2:No instance name assigned(nextBtn)
                 1    login_mc:STOP:39
                34    login_mc:AS:57
                 1    blackOutMc:Layer 1:1
                87    blackOutMc:Layer 1:2
                80    blackOutMc:Layer 1:63
                 1    worm:Layer 3:1
                 1    worm:Layer 3:2
                 1    worm_tongue:Layer 2:1
                 1    worm_tongue:Layer 2:2
                 1    spider_drop:Layer 10:1
                 1    spider_drop:Layer 10:2
                 1    spiderAttachMc:Layer 1:5
                 1    spiderAttachMc:Layer 1:23
                 1    glow:Layer 2:1
                 1    glow:Layer 2:2
                 1    glow:Layer 2:3
                 1    bird_hit:Layer 3:1
                 1    bird_hit:Layer 3:2
                 1    bird_hit:Layer 3:3
                 1    ship:Layer 7:1
                 1    ship:Layer 7:2
                 1    ship:Layer 7:3
                 1    sonar_mc:Layer 2:1
                 1    sonar_mc:Layer 2:2
                 1    sonar_mc:Layer 2:3
                 0    mega:Layer 4:3
                 1    mega:Layer 4:32
                 0    explosion:Layer 4:3
                 1    explosion:Layer 4:26
                 1    boss:Layer 2:1
                 1    boss:Layer 2:2
                 1    boss:Layer 2:3
                 1    boss:Layer 2:4
                 1    beamGunMc:Layer 9:1
                34    beamGunMc:Layer 9:2
                34    beamGunMc:Layer 9:111
                 1    boss:Layer 2:5
                 1    boss:Layer 2:6
                 1    pickup_mc:Layer 4:1
                 1    pickup_mc:Layer 4:2
                 1    pickup_mc:Layer 4:3
                 1    pickup_mc:Layer 4:4
                 1    pickup_mc:Layer 4:5
                 1    pickup_mc:Layer 4:6
                 1    pickup_mc:Layer 4:7
                 1    pickup_mc:Layer 4:8
                30    game graphics:Layer 23:1
                 1    writingMovie:Layer 4:1
                 1    writingMovie:Layer 4:2
                66    writer_01:Layer 2:1
                50    writer_01:Layer 2:2
               180    writer_01:Layer 2:3
                 1    curorAni:Layer 2:1
                 1    curorAni:Layer 2:2
                10    curorAni:Layer 2:13
                 1    writingMovie:Layer 4:3
                 1    writingMovie:Layer 4:20
                63    writer_02:Layer 2:1
                50    writer_02:Layer 2:2
               180    writer_02:Layer 2:3
                 1    writingMovie:Layer 4:21
                 1    writingMovie:Layer 4:60
                69    writer_03:Layer 2:1
                50    writer_03:Layer 2:2
               180    writer_03:Layer 2:3
                 1    writingMovie:Layer 4:61
                 1    writingMovie:Layer 4:82
                67    writer_04:Layer 2:1
                50    writer_04:Layer 2:2
               180    writer_04:Layer 2:3
                 1    writingMovie:Layer 4:83
                 1    writingMovie:Layer 4:104
                77    writer_05:Layer 2:1
                50    writer_05:Layer 2:2
               180    writer_05:Layer 2:3
                 1    writingMovie:Layer 4:105
                 1    writingMovie:Layer 4:116
                46    writer_06:Layer 2:1
                50    writer_06:Layer 2:2
               180    writer_06:Layer 2:3
                 1    writingMovie:Layer 4:117
                 1    writingMovie:Layer 4:127
                59    writer_07:Layer 2:1
                50    writer_07:Layer 2:2
               180    writer_07:Layer 2:3
                 1    writingMovie:Layer 4:128
                 1    writingMovie:Layer 4:133
                46    321CountdownMc:Layer 2:1
                46    321CountdownMc:Layer 2:20
                46    321CountdownMc:Layer 2:40
                52    321CountdownMc:Layer 2:60
                49    writingMovie:Layer 4:134
               239    game graphics:Layer 22:1:roll_btn(rollover)
               242    game graphics:Layer 22:1:No instance name assigned(link)
                 1    powerBtnMc:Layer 3:1
                 1    powerBtnMc:Layer 3:2
                 1    soundBtnMc:Layer 3:1
                68    soundBtnMc:Layer 4:1:No instance name assigned(btn)
                 1    soundBtnMc:Layer 3:2
                70    soundBtnMc:Layer 4:2:No instance name assigned(btn)
               184    PauseBtnMc:Layer 3:1
                 1    PauseBtnMc:Layer 3:2
                 1    megaBiteLrgIcon:Layer 3:1
                 1    megaBiteLrgIcon:Layer 3:2
                 1    megaBiteLrgIcon:Layer 3:3
                 1    megaBiteLrgIcon:Layer 3:4
                 1    megaBiteLrgIcon:Layer 3:5
                 1    megaBiteLrgIcon:Layer 3:6
                 1    megaBiteLrgIcon:Layer 3:7
                 1    megaBiteLrgIcon:Layer 3:8
                 1    VirusBossMc:Layer 9:1
                 1    VirusBossMc:Layer 9:2
                36    redExplodeSmlMc:redExplode20016.png:20
                36    blueExplodeMc:Layer 2:44
               561    Scene 1:AS:20
              1089    Scene 1:ACHIEVEMENTS:21
             30943    Scene 1:actions:21
                 1    movie_mc:Layer 7:1
               557    fps:Layer 2:1
                 1    info:Layer 3:1
                 1    info:Layer 3:2
                 1    info:Layer 2:35
               305    info:Layer 5:94
                38    info:Layer 2:171
              1910    Scene 1:actions:22
               880    hiscore:actions:1
                79    hiscore:Layer 5:1:submit_btn(sendFriendBtn)
                 1    protoMailMc:Layer 5:1
                 0    protoMailMc:Layer 5:2
               161    protoMailMc:Layer 5:40
               228    protoMailMc:btns:40:No instance name assigned(sendBtn)
                33    protoMailMc:btns:40:No instance name assigned(cancelBtn)
                 1    protoMailMc:Layer 5:41
                 1    protoMailMc:Layer 5:81
              2967    ActionScript 2.0 Classes

Bitmap                     Compressed    Compression
-----------------------    ----------  --------  -----------
dragonFlyTailEnd.png             267        1600   Lossless
dragonFlyTailPart.png             32          48   Lossless
dragonFlyWing1.png               218        5616   Lossless
dragonFlyWing2.png               142        1360   Lossless
dragonFly_body.png               149        1400   Lossless
dragonFlyHead.png                145        1444   Lossless
virus_bullet.png                 299        7744   Lossless
paternizer.png                  4014      307200   Lossless
BG_header.gif                    275        1512   Lossless
protokid.png                    1637       26696   Lossless
helpMouse.png                   1166       12408   JPEG Quality=80
rocketFlames.png                 129        1564   Lossless
protokidBankLeft.png            1437       26696   Lossless
protokidBankRight.png           1422       26696   Lossless
helpMouseOn.png                 1191       12408   JPEG Quality=80
basicBullet.png                  892        2944   Lossless
musicfile.png                    805        7520   Lossless
game23_postera.png             67351      473280   Lossless
snake_body.png                  1032        4216   Lossless
snake_head.png                  1534        7920   Lossless
headOpen.png                    1487        7744   Lossless
spiderLeg4.png                    44        1040   Lossless
spiderLeg4-1.png                  48        1088   Lossless
spiderLeg3.png                    67         748   Lossless
spiderLeg3-1.png                  63         792   Lossless
spiderLeg2.png                    57         896   Lossless
spiderLeg2-1.png                  56        1280   Lossless
spiderLeg1.png                    53        1152   Lossless
spiderLeg1-1.png                  59        1152   Lossless
spiderBody.png                   244        1536   Lossless
spiderHead.png                   120        2024   Lossless
spiderEyes.png                    78        2024   Lossless
spiderBlink.png                   43        2024   Lossless
outerglow1.png                   252       32536   Lossless
outerglow3.png                   243       32536   Lossless
outerglow2.png                   239       32536   Lossless
outerglow1_side.png              230       32536   Lossless
outerglow2_side.png              224       32536   Lossless
outerglow3_side.png              225       32536   Lossless
explode2                        1000        7200   Lossless
killawattBullet2.png             551        2640   Lossless
killawattBullet1.png             520        2508   Lossless
robothead.png                    432       11400   Lossless
robotbody.png                    736       18480   Lossless
robot_high_arm.png               271        3120   Lossless
robot_low_arm.png               1026       17836   Lossless
outline.png                     1976       16348   Lossless
tip1.png                         628        2480   Lossless
tip2.png                         562        2480   Lossless
charge1.png                     2077       16348   Lossless
charge2.png                     1641       16348   Lossless
charge3.png                     1965       16348   Lossless
beam.png                         367       27200   Lossless
outerElectric.png               5589       68480   Lossless
outerElectric1.png              5819       68480   Lossless
zigzag.png                       470        2976   Lossless
zigzag1.png                      456       12936   Lossless
leg1.png                         308        4200   Lossless
leg2.png                         263        4056   Lossless
firewall.png                     759        8624   Lossless
killawatt.png                    745        8624   Lossless
megaBite.png                     887        8624   Lossless
antivirus.png                    802        8624   Lossless
hoover.png                       810        8624   Lossless
1up_3.png                        946        9384   Lossless
1up_2.png                        957        9384   Lossless
1up_1.png                        933        9384   Lossless
superGun.png                     831        8624   Lossless
healthBar_bg.png                 290       29744   Lossless
healthBar_bars.png               107       29744   Lossless
left.png                         227       52480   Lossless
bottom.png                     19094      339264   Lossless
top.png                          232       76608   Lossless
right.png                        216       49200   Lossless
powerBtn_on.png                  477        2500   Lossless
powerBtn_off.png                 474        2500   Lossless
soundBtn_on.png                  155        2500   Lossless
soundBtn_off.png                 159        2500   Lossless
pauseBtnUp.png                   124        2116   Lossless
Pause1.png                        96        1280   Lossless
pauseBtnDown.png                 364        2116   Lossless
fireWallLrg.png                  101        1936   Lossless
killaWattLrg.png                  71        1936   Lossless
megaBiteLrg.png                  157        1936   Lossless
antiVirusLrg.png                 117        1936   Lossless
megaTronLrg.png                  116        1936   Lossless
1UpLrg.png                       101        1936   Lossless
fullGunsLrg.png                  150        1936   Lossless
beastieBullet.png                440        2500   Lossless
miniBadFlame2.png                 47         224   Lossless
miniBad1.png                     476        5760   Lossless
miniBad2.png                     471        5760   Lossless
virusOuterRim2.png               293       12996   Lossless
virusBlob3.png                   239        8836   Lossless
virusOuterRim1.png               387       20164   Lossless
virusBlob2.png                    81        1156   Lossless
virusBlob1.png                   112        2916   Lossless
virus_02.png                    1773      114208   Lossless
virus_innerEye.png                74        1152   Lossless
virusEye1.png                   1417       11760   Lossless
munch1.png                       694       25600   Lossless
munch2.png                      2783       25600   Lossless
redExplode20018.png            12925      102240   JPEG Quality=80
redExplode20022.png            11184      102240   JPEG Quality=80
redExplode20026.png             8423      102240   JPEG Quality=80
redExplode20028.png             7635      102240   JPEG Quality=80
redExplode20030.png             7168      102240   JPEG Quality=80
redExplode20038.png             8600      102240   JPEG Quality=80
redExplode20042.png             9586      102240   JPEG Quality=80
redExplode20046.png             8454      102240   JPEG Quality=80
blueExplode_010002.png          1152       40000   JPEG Quality=80
blueExplode_010004.png          3603       40000   JPEG Quality=80
blueExplode_010006.png          5094       40000   JPEG Quality=80
blueExplode_010008.png          5023       40000   JPEG Quality=80
blueExplode_010010.png          5231       40000   JPEG Quality=80
blueExplode_010012.png          5064       40000   JPEG Quality=80
blueExplode_010014.png          4973       40000   JPEG Quality=80
blueExplode_010016.png          4881       40000   JPEG Quality=80
blueExplode_010018.png          4788       40000   JPEG Quality=80
blueExplode_010020.png          4730       40000   JPEG Quality=80
blueExplode_010022.png          4624       40000   JPEG Quality=80
blueExplode_010024.png          4443       40000   JPEG Quality=80
blueExplode_010026.png          4503       40000   JPEG Quality=80
fireBullet2.png                  350        1292   Lossless
fireBullet.png copy              544        4104   Lossless
antiVirusBullet2.png             209        1156   Lossless
antiVirusBullet.png              259        1444   Lossless
antiVirusBullet1.png             502        3364   Lossless
megaBiteFire.png                  50         484   Lossless
megaBiteEngine.png                67         520   Lossless
megaBiteTeeth1.png               206        2400   Lossless
loopedBg_tgl.png               24082     1071840   Lossless
getReady.png                   11061      104160   Lossless
gameOver.png                    6693       98736   Lossless
sendFriend_01.png               5352      297560   Lossless
protoMailCancel.png               52        1024   Lossless
thanks.png                      5436      242144   Lossless

Event Sounds: 44KHz Stereo 16 kbps MP3


Sound name                 Bytes        Format    
-----------------------    ---------    ----------
thud_enemy.wav               2927        22KHz Stereo 56 kbps MP3
text_type.wav                 795        22KHz Mono 48 kbps MP3
spider_attack.wav            1445        22KHz Mono 56 kbps MP3
spider.wav                   8410        44KHz Stereo 112 kbps MP3
powerdown.aif               22011        22KHz Stereo 48 kbps MP3
pickup.wav                   4383        22KHz Stereo 64 kbps MP3
missile_short.aif            3031        11KHz Mono 16 kbps MP3
megabyte3.wav                3655        11KHz Mono 16 kbps MP3
main_tune.wav              320523        44KHz Mono 80 kbps MP3
magnatron.wav                9765        22KHz Mono 56 kbps MP3
killerwatt3.wav              3239        11KHz Mono 16 kbps MP3
happy_music2.wav            77532        44KHz Stereo 80 kbps MP3
guitar_2.wav                 8543        22KHz Stereo 64 kbps MP3
flange_fire_short.aif       13065        44KHz Stereo 160 kbps MP3
firewall3.wav                3967        11KHz Mono 16 kbps MP3
fire2.wav                    5423        44KHz Mono 64 kbps MP3
efxclassic6_3.wav            1159        11KHz Mono 16 kbps MP3
bullet_1_lo.wav              6540        44KHz Stereo 80 kbps MP3
boom_enemy.wav              15153        44KHz Mono 80 kbps MP3
antivirus3.wav               3967        11KHz Mono 16 kbps MP3




